{
    "Routes": [
        {
            "DownstreamPathTemplate": "/todos/{id}",
            "DownstreamScheme": "https",
            "DownstreamHostAndPorts": [
                {
                    "Host": "jsonplaceholder.typicode.com",
                    "Port": 443
                }
            ],
            "UpstreamPathTemplate": "/todos/{id}",
            "UpstreamHttpMethod": [ "Get", "Post", "Delete", "Put", "Path" ]
        },
        {
            "DownstreamPathTemplate": "/{everything}",
            "DownstreamScheme": "http",
            "DownstreamHostAndPorts": [
                {
                    "Host": "user-service",
                    "Port": 5000
                }
            ],
            "UpstreamPathTemplate": "/user/{everything}",
            "UpstreamHttpMethod": [ "Get", "Post", "Delete", "Put", "Path" ]
        },
        {
            "DownstreamPathTemplate": "/{everything}",
            "DownstreamScheme": "http",
            "DownstreamHostAndPorts": [
                {
                    "Host": "post-service",
                    "Port": 7000
                }
            ],
            "UpstreamPathTemplate": "/post/{everything}",
            "UpstreamHttpMethod": [ "Get", "Post", "Delete", "Put", "Path" ]
        },
        {
            "DownstreamPathTemplate": "/{everything}",
            "DownstreamScheme": "http",
            "DownstreamHostAndPorts": [
                {
                    "Host": "chat-service",
                    "Port": 8000
                }
            ],
            "UpstreamPathTemplate": "/chat/{everything}",
            "UpstreamHttpMethod": [ "Get", "Post", "Delete", "Put", "Path" ]
        },
        {
            "DownstreamPathTemplate": "/{everything}",
            "DownstreamScheme": "ws",
            "DownstreamHostAndPorts": [
                {
                    "Host": "chat-service",
                    "Port": 8000
                }
            ],
            "UpstreamPathTemplate": "/chatws/{everything}",
            "UpstreamHttpMethod": [ "GET", "POST", "PUT", "DELETE", "OPTIONS" ]
        }
    ],
    "GlobalConfiguration": {
        "BaseUrl": "http://localhost:3333"
    }
}